\relax 
\catcode`"\active
\catcode`<\active
\catcode`>\active
\@nameuse{es@quoting}
\catcode`'\active
\select@language{spanish}
\@writefile{toc}{\select@language{spanish}}
\@writefile{lof}{\select@language{spanish}}
\@writefile{lot}{\select@language{spanish}}
\@writefile{toc}{\contentsline {section}{\numberline {1}Introducci\'on}{3}}
\@writefile{toc}{\contentsline {paragraph}{}{3}}
\@writefile{toc}{\contentsline {paragraph}{}{3}}
\@writefile{toc}{\contentsline {paragraph}{}{3}}
\@writefile{toc}{\contentsline {paragraph}{}{3}}
\@writefile{toc}{\contentsline {paragraph}{}{3}}
\@writefile{toc}{\contentsline {section}{\numberline {2}Desarrollo}{4}}
\@writefile{toc}{\contentsline {section}{\numberline {3}Resultados}{6}}
\@writefile{lof}{\contentsline {figure}{\numberline {1}{\ignorespaces Se\~nal original con ruido.}}{6}}
\@writefile{lof}{\contentsline {figure}{\numberline {2}{\ignorespaces Frecuencia $DCT$.}}{6}}
\@writefile{lof}{\contentsline {figure}{\numberline {3}{\ignorespaces Frecuencia $DCT$ despu\'es de Porcentaje.}}{7}}
\@writefile{lof}{\contentsline {figure}{\numberline {4}{\ignorespaces Frecuencia $DCT$ despu\'es de Umbralizar.}}{7}}
\@writefile{lof}{\contentsline {figure}{\numberline {5}{\ignorespaces Despu\'es de aplicar el metodo Porcentaje. Se\~nal recuperada.}}{7}}
\@writefile{lof}{\contentsline {figure}{\numberline {6}{\ignorespaces Despu\'es de aplicar el metodo Umbralizar. Se\~nal recuperada.}}{8}}
