\select@language {spanish}
\contentsline {section}{\numberline {1}Introducci\'on}{3}
\contentsline {paragraph}{}{3}
\contentsline {paragraph}{}{3}
\contentsline {paragraph}{}{3}
\contentsline {paragraph}{}{3}
\contentsline {paragraph}{}{3}
\contentsline {section}{\numberline {2}Desarrollo}{4}
\contentsline {section}{\numberline {3}Resultados}{6}
